{
    "version": "5.1.5-dbg",
    "description": "Krita is the full-featured digital art studio",
    "homepage": "https://krita.org",
    "license": "GPL-3.0-only",
    "architecture": {
        "64bit": {
            "url": "https://binary-factory.kde.org/job/Krita_Release_Windows64_Build/140/artifact/krita-x64-5.1.5-dbg.zip",
            "hash": "md5:24a3b0a84a63f55cef5d1c42be545a74"
        }
    },
    "pre_install": [
        "Move-Item -Path \"$dir\\krita-x64-$version\\*\" -Destination \"$dir\\\"",
        "Remove-Item \"$dir\\krita-x64-$version\"",
        "Remove-Item \"$dir\\krita.lnk\""
    ],
    "bin": "bin\\krita.exe",
    "shortcuts": [
        [
            "bin\\krita.exe",
            "Krita"
        ]
    ],
    "checkver": {
        "url": "https://binary-factory.kde.org/job/Krita_Release_Windows64_Build/lastSuccessfulBuild/artifact/",
        "regex": "Build \\#(?<build>\\d+).*krita-x64-(?<version>\\d+.\\d+.\\d+?-[\\w\\d]+)\\.zip"
    },
    "autoupdate": {
        "architecture": {
            "64bit": {
                "url": "https://binary-factory.kde.org/job/Krita_Release_Windows64_Build/$matchBuild/artifact/krita-x64-$version.zip"
            }
        },
        "hash": {
            "url": "$url/*fingerprint*/",
            "regex": ">$md5</a>"
        }
    }
}
