{
    "version": "23.4.0",
    "description": "QOwnNotes is a plain-text file notepad and todo-list manager with markdown support and Nextcloud / ownCloud integration",
    "homepage": "https://github.com/pbek/QOwnNotes",
    "license": "GPLv2",
    "architecture": {
        "64bit": {
            "url": "https://github.com/pbek/QOwnNotes/releases/download/v23.4.0/QOwnNotes.zip",
            "hash": "e2792baedbf2ee5c3e23939b088cca44b6c36f8d56b540bdf27e9b131326f4df"
        },
        "32bit": {
            "url": "https://github.com/pbek/QOwnNotes/releases/download/v23.4.0/QOwnNotes.zip",
            "hash": "e2792baedbf2ee5c3e23939b088cca44b6c36f8d56b540bdf27e9b131326f4df"
        }
    },
    "bin": "QOwnNotes.exe",
    "shortcuts": [
        [
            "QOwnNotes.exe",
            "QOwnNotes"
        ]
    ],
    "checkver": {
        "github": "https://github.com/pbek/QOwnNotes"
    },
    "autoupdate": {
        "architecture": {
            "64bit": {
                "url": "https://github.com/pbek/QOwnNotes/releases/download/v$version/QOwnNotes.zip"
            },
            "32bit": {
                "url": "https://github.com/pbek/QOwnNotes/releases/download/v$version/QOwnNotes.zip"
            }
        }
    }
}
